<?xml version="1.0" encoding="UTF-8"?>
<symbol version="7" name="AlienCorte_Scramble_Frogger">
    <symboltype>BLOCK</symboltype>
    <timestamp>2011-4-22T3:1:54</timestamp>
    <pin polarity="Input" x="0" y="-480" name="I_SW(3:0)" />
    <pin polarity="Input" x="0" y="-256" name="I_RESET" />
    <pin polarity="Input" x="0" y="-32" name="I_BUTTON(3:0)" />
    <pin polarity="Output" x="480" y="-480" name="O_VIDEO_R(3:0)" />
    <pin polarity="Output" x="480" y="-416" name="O_VIDEO_G(3:0)" />
    <pin polarity="Output" x="480" y="-352" name="O_VIDEO_B(3:0)" />
    <pin polarity="Output" x="480" y="-288" name="O_LED(3:0)" />
    <pin polarity="Output" x="480" y="-224" name="O_HSYNC" />
    <pin polarity="Output" x="480" y="-160" name="O_VSYNC" />
    <pin polarity="Output" x="480" y="-96" name="O_AUDIO_L" />
    <pin polarity="Output" x="480" y="-32" name="O_AUDIO_R" />
    <graph>
        <rect width="352" x="64" y="-512" height="512" />
        <attrtext style="alignment:BCENTER;fontsize:56;fontname:Arial" attrname="SymbolName" x="240" y="-520" type="symbol" />
        <attrtext style="fontsize:24;fontname:Arial" attrname="PinName" x="72" y="-480" type="pin I_SW(3:0)" />
        <rect width="64" x="0" y="-492" height="24" />
        <line x2="0" y1="-480" y2="-480" x1="64" />
        <attrtext style="fontsize:24;fontname:Arial" attrname="PinName" x="72" y="-256" type="pin I_RESET" />
        <line x2="0" y1="-256" y2="-256" x1="64" />
        <attrtext style="fontsize:24;fontname:Arial" attrname="PinName" x="72" y="-32" type="pin I_BUTTON(3:0)" />
        <rect width="64" x="0" y="-44" height="24" />
        <line x2="0" y1="-32" y2="-32" x1="64" />
        <attrtext style="alignment:RIGHT;fontsize:24;fontname:Arial" attrname="PinName" x="408" y="-480" type="pin O_VIDEO_R(3:0)" />
        <rect width="64" x="416" y="-492" height="24" />
        <line x2="480" y1="-480" y2="-480" x1="416" />
        <attrtext style="alignment:RIGHT;fontsize:24;fontname:Arial" attrname="PinName" x="408" y="-416" type="pin O_VIDEO_G(3:0)" />
        <rect width="64" x="416" y="-428" height="24" />
        <line x2="480" y1="-416" y2="-416" x1="416" />
        <attrtext style="alignment:RIGHT;fontsize:24;fontname:Arial" attrname="PinName" x="408" y="-352" type="pin O_VIDEO_B(3:0)" />
        <rect width="64" x="416" y="-364" height="24" />
        <line x2="480" y1="-352" y2="-352" x1="416" />
        <attrtext style="alignment:RIGHT;fontsize:24;fontname:Arial" attrname="PinName" x="408" y="-288" type="pin O_LED(3:0)" />
        <rect width="64" x="416" y="-300" height="24" />
        <line x2="480" y1="-288" y2="-288" x1="416" />
        <attrtext style="alignment:RIGHT;fontsize:24;fontname:Arial" attrname="PinName" x="408" y="-224" type="pin O_HSYNC" />
        <line x2="480" y1="-224" y2="-224" x1="416" />
        <attrtext style="alignment:RIGHT;fontsize:24;fontname:Arial" attrname="PinName" x="408" y="-160" type="pin O_VSYNC" />
        <line x2="480" y1="-160" y2="-160" x1="416" />
        <attrtext style="alignment:RIGHT;fontsize:24;fontname:Arial" attrname="PinName" x="408" y="-96" type="pin O_AUDIO_L" />
        <line x2="480" y1="-96" y2="-96" x1="416" />
        <attrtext style="alignment:RIGHT;fontsize:24;fontname:Arial" attrname="PinName" x="408" y="-32" type="pin O_AUDIO_R" />
        <line x2="480" y1="-32" y2="-32" x1="416" />
    </graph>
</symbol>
